Master en Big Data. Fundamentos Matemáticos del Análisis de Datos (FMAD).
…
Este fichero contiene las notas de los alumnos de una clase, que hicieron dos tests cada semana durante cinco semanas. La tabla de datos no cumple los principios de tidy data que hemos visto en clase. Tu tarea en este ejercicio es explicar por qué no se cumplen y obtener una tabla de datos limpios con la misma información usando tidyR.

Indicación: lee la ayuda de la función separate de tidyR.

library(tidyverse)
clean_resultados= pivot_longer(resultados,col=5:9,names_to='week')
clean_resultados = separate(clean_resultados,col=5,into=c("to_delete","week"),sep=4,convert=TRUE)
clean_resultados <- clean_resultados %>%
    select (-to_delete)
(clean_resultados = separate(clean_resultados,col=3,into=c("gender","age"),sep="_"))

## # A tibble: 1,000 × 7
##    name     id gender age   test_number  week value
##    <chr> <dbl> <chr>  <chr>       <dbl> <int> <dbl>
##  1 Jacob   108 m      20              1     1     8
##  2 Jacob   108 m      20              1     2     5
##  3 Jacob   108 m      20              1     3     7
##  4 Jacob   108 m      20              1     4     5
##  5 Jacob   108 m      20              1     5     6
##  6 Jacob   108 m      20              2     1     2
##  7 Jacob   108 m      20              2     2     2
##  8 Jacob   108 m      20              2     3     4
##  9 Jacob   108 m      20              2     4     0
## 10 Jacob   108 m      20              2     5     3
## # … with 990 more rows
…
(who1 <- who %>%
  pivot_longer(
    cols = new_sp_m014:newrel_f65,
    names_to = "key",
    values_to = "cases",
    values_drop_na = TRUE
  ) %>%
  mutate(
    key = stringr::str_replace(key, "newrel", "new_rel")
  ) %>%
  separate(key, c("new", "var", "sexage")) %>%
  select(-new, -iso2, -iso3) %>%
  separate(sexage, c("sex", "age"), sep = 1))

## # A tibble: 76,046 × 6
##    country      year var   sex   age   cases
##    <chr>       <int> <chr> <chr> <chr> <int>
##  1 Afghanistan  1997 sp    m     014       0
##  2 Afghanistan  1997 sp    m     1524     10
##  3 Afghanistan  1997 sp    m     2534      6
##  4 Afghanistan  1997 sp    m     3544      3
##  5 Afghanistan  1997 sp    m     4554      5
##  6 Afghanistan  1997 sp    m     5564      2
##  7 Afghanistan  1997 sp    m     65        0
##  8 Afghanistan  1997 sp    f     014       5
##  9 Afghanistan  1997 sp    f     1524     38
## 10 Afghanistan  1997 sp    f     2534     36
## # … with 76,036 more rows
…
