Master en Big Data. Fundamentos Matemáticos del Análisis de Datos (FMAD).
…
##  [1] 1 2 2 3 3 3 4 4 4 4 5 5 5 5 5

(v3 <- rep(seq(1,4), times = 4))

##  [1] 1 2 3 4 1 2 3 4 1 2 3 4 1 2 3 4

Ejercicio 0.4

Utilizando la tabla mpg de la librería tidyverse crea una tabla mpg2 que:contenga las filas en las que la variable class toma el valor pickup y las columnas de la tabla original cuyos nombres empiezan por c. No se trata de que las selecciones a mano, por sus nombres.

(mpg2 <- mpg %>%
   filter(mpg$class == 'pickup') %>%
    select(starts_with('c')))

## # A tibble: 33 × 3
##      cyl   cty class
##    <int> <int> <chr>
##  1     6    15 pickup
##  2     6    14 pickup
##  3     6    13 pickup
##  4     6    14 pickup
##  5     8    14 pickup
##  6     8    14 pickup
##  7     8     9 pickup
##  8     8    11 pickup
##  9     8    11 pickup
## 10     8    12 pickup
## # … with 23 more rows
…
Estados ordenados según la población

census %>%
  select(state,pop) %>%
  arrange(desc(pop))

## # A tibble: 50 × 2
##    state             pop
##    <chr>           <dbl>
##  1 California   23667902
##  2 New York     17558072
##  3 Texas        14229191
##  4 Pennsylvania 11863895
##  5 Illinois     11426518
##  6 Ohio         10797630
##  7 Florida       9746324
##  8 Michigan      9262078
##  9 New Jersey    7364823
## 10 N. Carolina   5881766
## # … with 40 more rows

La tabla census con una nueva variable llamada tasa

census %>%
  mutate(tasa=divorce/marriage)

## # A tibble: 50 × 13
##    state        region    pop poplt5 pop5_17 pop18p pop65p popurban medage  death
##    <chr>       <dbl+l>  <dbl>  <dbl>   <dbl>  <dbl>  <dbl>    <dbl>  <dbl>  <dbl>
##  1 Alabama     3 [Sou… 3.89e6 2.96e5  865836 2.73e6 4.40e5  2337713   29.3  35305
##  2 Alaska      4 [Wes… 4.02e5 3.89e4   91796 2.71e5 1.15e4   258567   26.1   1604
##  3 Arizona     4 [Wes… 2.72e6 2.14e5  577604 1.93e6 3.07e5  2278728   29.2  21226
##  4 Arkansas    3 [Sou… 2.29e6 1.76e5  495782 1.62e6 3.12e5  1179556   30.6  22676
##  5 California  4 [Wes… 2.37e7 1.71e6 4680558 1.73e7 2.41e6 21607606   29.9 186428
##  6 Colorado    4 [Wes… 2.89e6 2.16e5  592318 2.08e6 2.47e5  2329869   28.6  18925
##  7 Connecticut 1 [NE]  3.11e6 1.85e5  637731 2.28e6 3.65e5  2449774   32    26005
##  8 Delaware    3 [Sou… 5.94e5 4.12e4  125444 4.28e5 5.92e4   419819   29.8   5123
##  9 Florida     3 [Sou… 9.75e6 5.70e5 1789412 7.39e6 1.69e6  8212385   34.7 104190
## 10 Georgia     3 [Sou… 5.46e6 4.15e5 1231195 3.82e6 5.17e5  3409081   28.7  44230
## # … with 40 more rows, and 3 more variables: marriage <dbl>, divorce <dbl>,
## #   tasa <dbl>
…
Los valores de height y weight están en pulgadas (inches) y libras (pounds) respectivamente. Una libra son \(\approx\) 0.454kg y una pulgada son \(\approx\) 0.0254m. Usa dplyr para convertir esas columnas a metros y kilogramos respectivamente. Las nuevas columnas deben llamarse igual que las originales.

chlstrl %>%
  mutate(height=height*0.0254,weight=weight*0.454)

## # A tibble: 403 × 7
##     chol   age gender height weight waist   hip
##    <dbl> <dbl> <fct>   <dbl>  <dbl> <dbl> <dbl>
##  1   203    46 female   1.57   54.9    29    38
##  2   165    29 female   1.63   99.0    46    48
##  3   228    58 female   1.55  116.     49    57
##  4    78    67 male     1.70   54.0    33    38
##  5   249    64 male     1.73   83.1    44    41
##  6   248    34 male     1.80   86.3    36    42
##  7   195    30 male     1.75   86.7    46    49
##  8   227    37 male     1.50   77.2    34    39
##  9   177    45 male     1.75   75.4    34    40
## 10   263    55 female   1.60   91.7    45    50
## # … with 393 more rows

Ahora usa esos valores de height y weight para añadir una nueva columna llamada BMI, definida mediante: \[BMI = \dfrac{weight}{height^2}\] (se divide por el cuadrado de la altura).

(chlstrl <- chlstrl %>%
  mutate(BMI=weight/height^2))

## # A tibble: 403 × 8
##     chol   age gender height weight waist   hip    BMI
##    <dbl> <dbl> <fct>   <dbl>  <dbl> <dbl> <dbl>  <dbl>
##  1   203    46 female     62    121    29    38 0.0315
##  2   165    29 female     64    218    46    48 0.0532
##  3   228    58 female     61    256    49    57 0.0688
##  4    78    67 male       67    119    33    38 0.0265
##  5   249    64 male       68    183    44    41 0.0396
##  6   248    34 male       71    190    36    42 0.0377
##  7   195    30 male       69    191    46    49 0.0401
##  8   227    37 male       59    170    34    39 0.0488
##  9   177    45 male       69    166    34    40 0.0349
## 10   263    55 female     63    202    45    50 0.0509
## # … with 393 more rows

Crea una nueva columna llamada ageGroup dividiendo la edad en los siguientes tres niveles:

(10,40], (40,70], (70,100]

(chlstrl <- chlstrl %>%
  mutate(ageGroup = cut(age,breaks = c(10,40,70,100))))

## # A tibble: 403 × 9
##     chol   age gender height weight waist   hip    BMI ageGroup
##    <dbl> <dbl> <fct>   <dbl>  <dbl> <dbl> <dbl>  <dbl> <fct>
##  1   203    46 female     62    121    29    38 0.0315 (40,70]
##  2   165    29 female     64    218    46    48 0.0532 (10,40]
##  3   228    58 female     61    256    49    57 0.0688 (40,70]
##  4    78    67 male       67    119    33    38 0.0265 (40,70]
##  5   249    64 male       68    183    44    41 0.0396 (40,70]
##  6   248    34 male       71    190    36    42 0.0377 (10,40]
##  7   195    30 male       69    191    46    49 0.0401 (10,40]
##  8   227    37 male       59    170    34    39 0.0488 (10,40]
##  9   177    45 male       69    166    34    40 0.0349 (40,70]
## 10   263    55 female     63    202    45    50 0.0509 (40,70]
## # … with 393 more rows
…
Haz el ejercicio 1 de la Sección 5.2.4 de R4DS. Prerequisitos

library(nycflights13)

Find all flights that:

Had an arrival delay of two or more hours

flights %>%
  filter(dep_delay>=120)

## # A tibble: 9,888 × 19
##     year month   day dep_time sched_dep_time dep_delay arr_time sched_arr_time
##    <int> <int> <int>    <int>          <int>     <dbl>    <int>          <int>
##  1  2013     1     1      848           1835       853     1001           1950
##  2  2013     1     1      957            733       144     1056            853
##  3  2013     1     1     1114            900       134     1447           1222
##  4  2013     1     1     1540           1338       122     2020           1825
##  5  2013     1     1     1815           1325       290     2120           1542
##  6  2013     1     1     1842           1422       260     1958           1535
##  7  2013     1     1     1856           1645       131     2212           2005
##  8  2013     1     1     1934           1725       129     2126           1855
##  9  2013     1     1     1938           1703       155     2109           1823
## 10  2013     1     1     1942           1705       157     2124           1830
## # … with 9,878 more rows, and 11 more variables: arr_delay <dbl>,
## #   carrier <chr>, flight <int>, tailnum <chr>, origin <chr>, dest <chr>,
## #   air_time <dbl>, distance <dbl>, hour <dbl>, minute <dbl>, time_hour <dttm>

Flew to Houston (IAH or HOU)

flights %>%
  filter(dest=='IAH'|dest=='HOU')

## # A tibble: 9,313 × 19
##     year month   day dep_time sched_dep_time dep_delay arr_time sched_arr_time
##    <int> <int> <int>    <int>          <int>     <dbl>    <int>          <int>
##  1  2013     1     1      517            515         2      830            819
##  2  2013     1     1      533            529         4      850            830
##  3  2013     1     1      623            627        -4      933            932
##  4  2013     1     1      728            732        -4     1041           1038
##  5  2013     1     1      739            739         0     1104           1038
##  6  2013     1     1      908            908         0     1228           1219
##  7  2013     1     1     1028           1026         2     1350           1339
##  8  2013     1     1     1044           1045        -1     1352           1351
##  9  2013     1     1     1114            900       134     1447           1222
## 10  2013     1     1     1205           1200         5     1503           1505
## # … with 9,303 more rows, and 11 more variables: arr_delay <dbl>,
## #   carrier <chr>, flight <int>, tailnum <chr>, origin <chr>, dest <chr>,
## #   air_time <dbl>, distance <dbl>, hour <dbl>, minute <dbl>, time_hour <dttm>

Were operated by United, American, or Delta

flights %>%
  filter(carrier=='UA'|carrier=='DL'|carrier=='AA')

## # A tibble: 139,504 × 19
##     year month   day dep_time sched_dep_time dep_delay arr_time sched_arr_time
##    <int> <int> <int>    <int>          <int>     <dbl>    <int>          <int>
##  1  2013     1     1      517            515         2      830            819
##  2  2013     1     1      533            529         4      850            830
##  3  2013     1     1      542            540         2      923            850
##  4  2013     1     1      554            600        -6      812            837
##  5  2013     1     1      554            558        -4      740            728
##  6  2013     1     1      558            600        -2      753            745
##  7  2013     1     1      558            600        -2      924            917
##  8  2013     1     1      558            600        -2      923            937
##  9  2013     1     1      559            600        -1      941            910
## 10  2013     1     1      559            600        -1      854            902
## # … with 139,494 more rows, and 11 more variables: arr_delay <dbl>,
## #   carrier <chr>, flight <int>, tailnum <chr>, origin <chr>, dest <chr>,
## #   air_time <dbl>, distance <dbl>, hour <dbl>, minute <dbl>, time_hour <dttm>

Departed in summer (July, August, and September)

flights %>%
  filter(month==7|month==8|month==9)

## # A tibble: 86,326 × 19
##     year month   day dep_time sched_dep_time dep_delay arr_time sched_arr_time
##    <int> <int> <int>    <int>          <int>     <dbl>    <int>          <int>
##  1  2013     7     1        1           2029       212      236           2359
##  2  2013     7     1        2           2359         3      344            344
##  3  2013     7     1       29           2245       104      151              1
##  4  2013     7     1       43           2130       193      322             14
##  5  2013     7     1       44           2150       174      300            100
##  6  2013     7     1       46           2051       235      304           2358
##  7  2013     7     1       48           2001       287      308           2305
##  8  2013     7     1       58           2155       183      335             43
##  9  2013     7     1      100           2146       194      327             30
## 10  2013     7     1      100           2245       135      337            135
## # … with 86,316 more rows, and 11 more variables: arr_delay <dbl>,
## #   carrier <chr>, flight <int>, tailnum <chr>, origin <chr>, dest <chr>,
## #   air_time <dbl>, distance <dbl>, hour <dbl>, minute <dbl>, time_hour <dttm>

Arrived more than two hours late, but didn’t leave late

flights %>%
  filter(dep_time==sched_dep_time|arr_delay>120)

## # A tibble: 26,545 × 19
##     year month   day dep_time sched_dep_time dep_delay arr_time sched_arr_time
##    <int> <int> <int>    <int>          <int>     <dbl>    <int>          <int>
##  1  2013     1     1      559            559         0      702            706
##  2  2013     1     1      600            600         0      851            858
##  3  2013     1     1      600            600         0      837            825
##  4  2013     1     1      607            607         0      858            915
##  5  2013     1     1      615            615         0     1039           1100
##  6  2013     1     1      615            615         0      833            842
##  7  2013     1     1      635            635         0     1028            940
##  8  2013     1     1      655            655         0     1021           1030
##  9  2013     1     1      739            739         0     1104           1038
## 10  2013     1     1      745            745         0     1135           1125
## # … with 26,535 more rows, and 11 more variables: arr_delay <dbl>,
## #   carrier <chr>, flight <int>, tailnum <chr>, origin <chr>, dest <chr>,
## #   air_time <dbl>, distance <dbl>, hour <dbl>, minute <dbl>, time_hour <dttm>

Were delayed by at least an hour, but made up over 30 minutes in flight

flights %>%
  filter((dep_delay-arr_delay)>30|dep_delay>=60)

## # A tibble: 43,165 × 19
##     year month   day dep_time sched_dep_time dep_delay arr_time sched_arr_time
##    <int> <int> <int>    <int>          <int>     <dbl>    <int>          <int>
##  1  2013     1     1      701            700         1     1123           1154
##  2  2013     1     1      811            630       101     1047            830
##  3  2013     1     1      820            820         0     1249           1329
##  4  2013     1     1      826            715        71     1136           1045
##  5  2013     1     1      840            845        -5     1311           1350
##  6  2013     1     1      848           1835       853     1001           1950
##  7  2013     1     1      857            851         6     1157           1222
##  8  2013     1     1      909            810        59     1331           1315
##  9  2013     1     1      957            733       144     1056            853
## 10  2013     1     1     1025            951        34     1258           1302
## # … with 43,155 more rows, and 11 more variables: arr_delay <dbl>,
## #   carrier <chr>, flight <int>, tailnum <chr>, origin <chr>, dest <chr>,
## #   air_time <dbl>, distance <dbl>, hour <dbl>, minute <dbl>, time_hour <dttm>

Departed between midnight and 6am (inclusive)

flights %>%
  filter(between(hour,0,6))

## # A tibble: 27,905 × 19
##     year month   day dep_time sched_dep_time dep_delay arr_time sched_arr_time
##    <int> <int> <int>    <int>          <int>     <dbl>    <int>          <int>
##  1  2013     1     1      517            515         2      830            819
##  2  2013     1     1      533            529         4      850            830
##  3  2013     1     1      542            540         2      923            850
##  4  2013     1     1      544            545        -1     1004           1022
##  5  2013     1     1      554            600        -6      812            837
##  6  2013     1     1      554            558        -4      740            728
##  7  2013     1     1      555            600        -5      913            854
##  8  2013     1     1      557            600        -3      709            723
##  9  2013     1     1      557            600        -3      838            846
## 10  2013     1     1      558            600        -2      753            745
## # … with 27,895 more rows, and 11 more variables: arr_delay <dbl>,
## #   carrier <chr>, flight <int>, tailnum <chr>, origin <chr>, dest <chr>,
## #   air_time <dbl>, distance <dbl>, hour <dbl>, minute <dbl>, time_hour <dttm>
